<svg width="54" height="54" viewBox="0 0 54 54" fill="none" xmlns="http://www.w3.org/2000/svg">
<g clip-path="url(#clip0)">
<path d="M18.6977 10.4031H9.25574C8.38191 10.4031 7.67371 11.1113 7.67371 11.9851C7.67371 12.8589 8.38191 13.5672 9.25574 13.5672H18.6977C19.5711 13.5672 20.2797 12.8589 20.2797 11.9851C20.2797 11.1113 19.5711 10.4031 18.6977 10.4031Z" fill="#CE9C08"/>
<path d="M18.6977 16.7316H9.25574C8.38191 16.7316 7.67371 17.4398 7.67371 18.3137C7.67371 19.1875 8.38191 19.8957 9.25574 19.8957H18.6977C19.5711 19.8957 20.2797 19.1875 20.2797 18.3137C20.2797 17.4398 19.5711 16.7316 18.6977 16.7316Z" fill="#CE9C08"/>
<path d="M18.6977 23.0602H9.25574C8.38191 23.0602 7.67371 23.7684 7.67371 24.6422C7.67371 25.516 8.38191 26.2242 9.25574 26.2242H18.6977C19.5711 26.2242 20.2797 25.516 20.2797 24.6422C20.2797 23.7684 19.5711 23.0602 18.6977 23.0602Z" fill="#CE9C08"/>
<path d="M18.6977 29.3887H9.25574C8.38191 29.3887 7.67371 30.0969 7.67371 30.9707C7.67371 31.8446 8.38191 32.5528 9.25574 32.5528H18.6977C19.5711 32.5528 20.2797 31.8446 20.2797 30.9707C20.2797 30.0969 19.5711 29.3887 18.6977 29.3887Z" fill="#CE9C08"/>
<path d="M18.6977 35.8231H9.25574C8.38191 35.8231 7.67371 36.5317 7.67371 37.4052C7.67371 38.279 8.38191 38.9872 9.25574 38.9872H18.6977C19.5711 38.9872 20.2797 38.279 20.2797 37.4052C20.2797 36.5317 19.5711 35.8231 18.6977 35.8231Z" fill="#CE9C08"/>
<path d="M24.0106 13.5672H33.4525C34.3264 13.5672 35.0346 12.8589 35.0346 11.9851C35.0346 11.1113 34.3264 10.4031 33.4525 10.4031H24.0106C23.1372 10.4031 22.4286 11.1113 22.4286 11.9851C22.4286 12.8589 23.1372 13.5672 24.0106 13.5672Z" fill="#CE9C08"/>
<path d="M24.0106 19.8957H33.4525C34.3264 19.8957 35.0346 19.1875 35.0346 18.3137C35.0346 17.4398 34.3264 16.7316 33.4525 16.7316H24.0106C23.1372 16.7316 22.4286 17.4398 22.4286 18.3137C22.4286 19.1875 23.1372 19.8957 24.0106 19.8957Z" fill="#CE9C08"/>
<path d="M30.1402 24.6422C30.1402 23.7684 29.432 23.0602 28.5581 23.0602H24.0106C23.1372 23.0602 22.4286 23.7684 22.4286 24.6422C22.4286 25.516 23.1372 26.2242 24.0106 26.2242H28.5581C29.432 26.2242 30.1402 25.516 30.1402 24.6422Z" fill="#CE9C08"/>
<path d="M45.1271 36.491C44.4456 35.9442 43.4503 36.0534 42.9032 36.7348L38.8286 41.8147L36.306 39.9871C35.5986 39.4742 34.609 39.6324 34.0965 40.3397C33.584 41.0475 33.7422 42.0367 34.4496 42.5492L38.1917 45.2605C38.4718 45.4632 38.7965 45.5617 39.1191 45.5617C39.5834 45.5617 40.0423 45.3577 40.3538 44.9692L45.3714 38.7149C45.9181 38.0334 45.8089 37.0377 45.1271 36.491Z" fill="#CE9C08"/>
<path d="M49.1258 31.6344C47.065 29.5374 44.4172 28.2158 41.5481 27.8264V6.37138C41.5481 2.85837 38.6897 0 35.1767 0H7.53195C4.01852 0 1.16016 2.85837 1.16016 6.37138V43.0189C1.16016 46.5323 4.01852 49.3907 7.53154 49.3907H29.7661C32.2681 52.3298 35.8656 54 39.7576 54C47.0024 54 52.8963 48.102 52.8963 40.8522C52.8963 37.3817 51.5573 34.108 49.1258 31.6344ZM4.32422 43.0189V6.37138C4.32422 4.60313 5.76329 3.16406 7.53195 3.16406H35.1767C36.9454 3.16406 38.384 4.60313 38.384 6.37138V27.7762C31.7823 28.4654 26.6189 34.0664 26.6189 40.8522C26.6189 42.733 27.0111 44.5515 27.7634 46.2262H7.53195C5.76329 46.2262 4.32422 44.7876 4.32422 43.0189ZM39.7576 50.8359C36.5981 50.8359 33.6936 49.3853 31.7881 46.8566C30.4763 45.1151 29.7826 43.0391 29.7826 40.8522C29.7826 35.3473 34.2576 30.8686 39.7576 30.8686C39.8095 30.8686 39.8618 30.8694 39.9137 30.8702L39.938 30.8706C42.5636 30.9172 45.0253 31.976 46.8693 33.8522C48.7154 35.7304 49.7322 38.2168 49.7322 40.8522C49.7322 46.3572 45.2576 50.8359 39.7576 50.8359Z" fill="#CE9C08"/>
</g>
<defs>
<clipPath id="clip0">
<rect width="54" height="54" fill="white"/>
</clipPath>
</defs>
</svg>
