<svg width="54" height="54" viewBox="0 0 54 54" fill="none" xmlns="http://www.w3.org/2000/svg">
<g clip-path="url(#clip0)">
<path d="M7.2 46.8H14.4648C14.8767 46.8004 15.2829 46.8969 15.651 47.0817L16.9614 47.7414C19.2849 48.8925 21.842 49.4942 24.435 49.5H26.802C27.3098 50.0703 28.0364 50.3976 28.8 50.4V51.3C28.8 52.7912 30.0088 54 31.5 54C32.9912 54 34.2 52.7912 34.2 51.3V50.4C35.2671 50.4047 36.2359 49.7779 36.6689 48.8026C37.1019 47.8274 36.9171 46.6883 36.198 45.9C37.134 44.8825 37.134 43.3174 36.198 42.3C37.134 41.2825 37.134 39.7174 36.198 38.7C36.7206 38.13 36.971 37.3618 36.8847 36.5933C36.7984 35.8249 36.3839 35.1313 35.748 34.6914C37.5357 34.1404 38.7407 32.4702 38.7 30.6C38.7 29.6059 37.8941 28.8 36.9 28.8H34.2V27H46.8C48.2912 27 49.5 25.7912 49.5 24.3V2.69999C49.5 1.20882 48.2912 -1.33514e-05 46.8 -1.33514e-05H16.2C14.7088 -1.33514e-05 13.5 1.20882 13.5 2.69999V24.3C13.5 25.7912 14.7088 27 16.2 27H28.8V28.8H26.424C22.5107 28.8025 18.7217 30.1745 15.714 32.6781C15.2312 33.0798 14.623 33.2998 13.995 33.3H7.2C5.70883 33.3 4.5 34.5088 4.5 36V44.1C4.5 45.5912 5.70883 46.8 7.2 46.8ZM27 36.9C27 36.4029 27.4029 36 27.9 36H34.2C34.6971 36 35.1 36.4029 35.1 36.9C35.1 37.397 34.6971 37.8 34.2 37.8H27.9C27.4029 37.8 27 37.397 27 36.9ZM35.1 40.5C35.1 40.997 34.6971 41.4 34.2 41.4H27.9C27.4029 41.4 27 40.997 27 40.5C27 40.0029 27.4029 39.6 27.9 39.6H34.2C34.6971 39.6 35.1 40.0029 35.1 40.5ZM34.2 43.2C34.6971 43.2 35.1 43.6029 35.1 44.1C35.1 44.597 34.6971 45 34.2 45H27.9C27.4029 45 27 44.597 27 44.1C27 43.6029 27.4029 43.2 27.9 43.2H34.2ZM32.4 51.3C32.4 51.797 31.9971 52.2 31.5 52.2C31.0029 52.2 30.6 51.797 30.6 51.3V50.4H32.4V51.3ZM34.2 48.6H28.8C28.3029 48.6 27.9 48.197 27.9 47.7C27.9 47.2029 28.3029 46.8 28.8 46.8H34.2C34.6971 46.8 35.1 47.2029 35.1 47.7C35.1 48.197 34.6971 48.6 34.2 48.6ZM36.9 30.6C36.9 32.49 35.3844 33.0732 34.2 33.2388V30.6H36.9ZM15.3 24.3V2.69999C15.3 2.20293 15.7029 1.79999 16.2 1.79999H46.8C47.2971 1.79999 47.7 2.20293 47.7 2.69999V24.3C47.7 24.797 47.2971 25.2 46.8 25.2H16.2C15.7029 25.2 15.3 24.797 15.3 24.3ZM32.4 27V34.2H30.6V27H32.4ZM6.3 36C6.3 35.5029 6.70294 35.1 7.2 35.1H13.995C15.0441 35.0991 16.0599 34.7318 16.8669 34.0614C19.5508 31.8273 22.9319 30.6027 26.424 30.6H28.8V34.2H27.9C26.8329 34.1953 25.8641 34.8221 25.4311 35.7973C24.9981 36.7726 25.1829 37.9116 25.902 38.7C24.966 39.7174 24.966 41.2825 25.902 42.3C25.3649 42.8864 25.1167 43.6814 25.2247 44.4692C25.3327 45.257 25.7858 45.9559 26.4609 46.3761C26.2273 46.7784 26.1029 47.2348 26.1 47.7H24.435C22.1212 47.6947 19.8395 47.158 17.766 46.1313L16.4601 45.4734C15.8407 45.163 15.1576 45.0009 14.4648 45H7.2C6.70294 45 6.3 44.597 6.3 44.1V36Z" fill="#CE9C08" stroke="#CE9C08" stroke-width="0.5"/>
<path d="M27 9.89998C26.997 7.41593 24.984 5.40296 22.5 5.39998H19.8C18.8059 5.39998 18 6.20587 18 7.19998V19.8C18 20.7941 18.8059 21.6 19.8 21.6H22.5C24.441 21.6056 26.1655 20.3623 26.7736 18.519C27.3817 16.6757 26.7354 14.6504 25.1721 13.5C26.3178 12.6577 26.996 11.3219 27 9.89998ZM25.2 17.1C25.2 18.5911 23.9912 19.8 22.5 19.8H19.8V14.4H22.5C23.9912 14.4 25.2 15.6088 25.2 17.1ZM22.5 12.6H19.8V7.19998H22.5C23.9912 7.19998 25.2 8.40881 25.2 9.89998C25.2 11.3911 23.9912 12.6 22.5 12.6Z" fill="#CE9C08" stroke="#CE9C08" stroke-width="0.5"/>
<path d="M38.6999 21.6H40.4999C43.481 21.597 45.8969 19.1811 45.8999 16.2V10.8C45.8969 7.81888 43.481 5.40296 40.4999 5.39998H38.6999C37.7058 5.39998 36.8999 6.20587 36.8999 7.19998V19.8C36.8999 20.7941 37.7058 21.6 38.6999 21.6ZM38.6999 7.19998H40.4999C42.4881 7.19998 44.0999 8.81176 44.0999 10.8V16.2C44.0999 18.1882 42.4881 19.8 40.4999 19.8H38.6999V7.19998Z" fill="#CE9C08" stroke="#CE9C08" stroke-width="0.5"/>
<path d="M35.1 20.7C35.1 20.2029 34.6971 19.8 34.2 19.8H32.4V7.19998H34.2C34.6971 7.19998 35.1 6.79704 35.1 6.29998C35.1 5.80292 34.6971 5.39998 34.2 5.39998H28.8C28.303 5.39998 27.9 5.80292 27.9 6.29998C27.9 6.79704 28.303 7.19998 28.8 7.19998H30.6V19.8H28.8C28.303 19.8 27.9 20.2029 27.9 20.7C27.9 21.197 28.303 21.6 28.8 21.6H34.2C34.6971 21.6 35.1 21.197 35.1 20.7Z" fill="#CE9C08" stroke="#CE9C08" stroke-width="0.5"/>
</g>
<defs>
<clipPath id="clip0">
<rect width="54" height="54" fill="white"/>
</clipPath>
</defs>
</svg>
