<svg width="50" height="50" viewBox="0 0 50 50" fill="none" xmlns="http://www.w3.org/2000/svg">
<path d="M43.4448 10.7219L33.0281 0.305176C32.8328 0.109863 32.5684 0 32.2916 0H10.4166C8.11865 0 6.25 1.86865 6.25 4.1667V45.8334C6.25 48.1313 8.11865 50 10.4167 50H39.5834C41.8813 50 43.75 48.1313 43.75 45.8333V11.4583C43.75 11.1816 43.6401 10.9172 43.4448 10.7219ZM33.3333 3.55635L40.1937 10.4167H35.4166C34.2682 10.4167 33.3333 9.48184 33.3333 8.3334V3.55635ZM41.6667 45.8333C41.6667 46.9817 40.7318 47.9166 39.5834 47.9166H10.4167C9.26826 47.9166 8.3334 46.9817 8.3334 45.8333V4.1667C8.3334 3.01826 9.26826 2.0834 10.4167 2.0834H31.25V8.3334C31.25 10.6313 33.1187 12.5 35.4167 12.5H41.6667V45.8333Z" fill="#79828B"/>
<path d="M30.311 30.5796C29.3467 29.8207 28.4302 29.0405 27.8198 28.4302C27.0264 27.6367 26.3193 26.8677 25.705 26.1352C26.6633 23.174 27.0834 21.6472 27.0834 20.8333C27.0834 17.3757 25.8342 16.6666 23.9584 16.6666C22.5332 16.6666 20.8334 17.4071 20.8334 20.933C20.8334 22.4874 21.6849 24.3744 23.3725 26.5676C22.9595 27.8279 22.4742 29.2816 21.929 30.9204C21.6665 31.7067 21.3817 32.435 21.0806 33.1085C20.8355 33.2174 20.5974 33.3282 20.3675 33.4431C19.5395 33.8572 18.7531 34.2295 18.0237 34.5754C14.6973 36.1501 12.5 37.1918 12.5 39.2486C12.5 40.742 14.1226 41.6666 15.625 41.6666C17.5618 41.6666 20.4864 39.0797 22.6227 34.7218C24.8402 33.8469 27.5971 33.1989 29.7729 32.793C31.5165 34.1338 33.4422 35.4166 34.375 35.4166C36.9578 35.4166 37.5 33.9232 37.5 32.671C37.5 30.2082 34.6862 30.2082 33.3333 30.2082C32.9132 30.2083 31.7861 30.3324 30.311 30.5796ZM15.625 39.5833C15.0299 39.5833 14.6271 39.3025 14.5833 39.2486C14.5833 38.51 16.7856 37.4664 18.9158 36.4573C19.0511 36.3932 19.1885 36.3291 19.3278 36.263C17.7633 38.5315 16.216 39.5833 15.625 39.5833ZM22.9167 20.933C22.9167 18.75 23.5942 18.75 23.9584 18.75C24.6949 18.75 25.0001 18.75 25.0001 20.8333C25.0001 21.2727 24.7071 22.3714 24.171 24.0865C23.353 22.8271 22.9167 21.7478 22.9167 20.933ZM23.7152 32.1289C23.7804 31.9478 23.8435 31.7647 23.9045 31.5796C24.291 30.4199 24.639 29.3782 24.9492 28.4403C25.3815 28.9164 25.8475 29.4037 26.347 29.9031C26.5423 30.0984 27.0265 30.5379 27.6715 31.0882C26.3875 31.3679 25.0214 31.7148 23.7152 32.1289ZM35.4167 32.6711C35.4167 33.139 35.4167 33.3333 34.4503 33.3394C34.1665 33.2784 33.5104 32.8919 32.7006 32.3405C32.9945 32.308 33.2112 32.2917 33.3333 32.2917C34.8725 32.2917 35.3089 32.4422 35.4167 32.6711Z" fill="#79828B"/>
</svg>
